<svg width="24" height="24" viewBox="0 0 24 24" fill="none" xmlns="http://www.w3.org/2000/svg">
<g clip-path="url(#clip0_212_13309)">
<path d="M17 20H7C4 20 2 18 2 15V9C2 6 4 4 7 4H17C20 4 22 6 22 9V15C22 18 20 20 17 20Z" stroke="#E3E3E3" stroke-miterlimit="10" stroke-linecap="round" stroke-linejoin="round"/>
<path d="M11.4001 9.49933L13.9001 10.9993C14.8001 11.5993 14.8001 12.4993 13.9001 13.0993L11.4001 14.5993C10.4001 15.1993 9.6001 14.6993 9.6001 13.5993V10.5993C9.6001 9.29933 10.4001 8.89933 11.4001 9.49933Z" stroke="#E3E3E3" stroke-miterlimit="10" stroke-linecap="round" stroke-linejoin="round"/>
</g>
<defs>
<clipPath id="clip0_212_13309">
<rect width="24" height="24" fill="white"/>
</clipPath>
</defs>
</svg>
